Time of Error: 26/03/2019 11:51 AM
URL: http://localhost:63846/Admin/AddNewPage
Form: 
QueryString: 
Server Name: localhost
User Agent: Mozilla/5.0 (Windows NT 6.1; Win64; x64) AppleWebKit/537.36 (KHTML, like Gecko) Chrome/73.0.3683.86 Safari/537.36
User IP: ::1
User Host Name: ::1
Message: Column 'Title' does not belong to table .
Source: System.Data
TargetSite: System.Data.DataColumn GetDataColumn(System.String)
StackTrace:    at System.Data.DataRow.GetDataColumn(String columnName)
   at System.Data.DataRow.get_Item(String columnName)
   at Patvin.Controllers.AdminController.GetNewPageList() in C:\Users\user\Desktop\rahul1\rahul1\Patvin\MvcApplication1\Controllers\AdminController.cs:line 8733




Time of Error: 26/03/2019 11:54 AM
URL: http://localhost:63846/Admin/AddNewPage
Form: 
QueryString: 
Server Name: localhost
User Agent: Mozilla/5.0 (Windows NT 6.1; Win64; x64) AppleWebKit/537.36 (KHTML, like Gecko) Chrome/73.0.3683.86 Safari/537.36
User IP: ::1
User Host Name: ::1
Message: Column 'Title' does not belong to table .
Source: System.Data
TargetSite: System.Data.DataColumn GetDataColumn(System.String)
StackTrace:    at System.Data.DataRow.GetDataColumn(String columnName)
   at System.Data.DataRow.get_Item(String columnName)
   at Patvin.Controllers.AdminController.GetNewPageList() in C:\Users\user\Desktop\rahul1\rahul1\Patvin\MvcApplication1\Controllers\AdminController.cs:line 8733




Time of Error: 26/03/2019 11:54 AM
URL: http://localhost:63846/Admin/AddNewPage
Form: 
QueryString: 
Server Name: localhost
User Agent: Mozilla/5.0 (Windows NT 6.1; Win64; x64) AppleWebKit/537.36 (KHTML, like Gecko) Chrome/73.0.3683.86 Safari/537.36
User IP: ::1
User Host Name: ::1
Message: Column 'Title' does not belong to table .
Source: System.Data
TargetSite: System.Data.DataColumn GetDataColumn(System.String)
StackTrace:    at System.Data.DataRow.GetDataColumn(String columnName)
   at System.Data.DataRow.get_Item(String columnName)
   at Patvin.Controllers.AdminController.GetNewPageList() in C:\Users\user\Desktop\rahul1\rahul1\Patvin\MvcApplication1\Controllers\AdminController.cs:line 8733




