Time of Error: 8/31/2018 4:04 AM
URL: http://kwebmakerusa.com/alchemyproject/Admin/MediaCenterPage/15
Form: 
QueryString: 
Server Name: kwebmakerusa.com
User Agent: Mozilla/5.0 (Windows NT 6.1; Win64; x64) AppleWebKit/537.36 (KHTML, like Gecko) Chrome/68.0.3440.106 Safari/537.36
User IP: 116.72.136.133
User Host Name: 116.72.136.133
Message: There is no row at position 0.
Source: System.Data
TargetSite: NodePath GetNodeByIndex(Int32)
StackTrace:    at System.Data.RBTree`1.GetNodeByIndex(Int32 userIndex)
   at System.Data.DataRowCollection.get_Item(Int32 index)
   at Alchemy.Controllers.AdminController.GetInsightsList(Nullable`1 Id) in D:\rahul\Alchemy\Alchemy\Project\Alchemy\MvcApplication1\Controllers\AdminController.cs:line 3368




