Time of Error: 08/13/18 12:30 PM
URL: http://localhost:63896/Career
Form: FullName=ARvind&Email=sgdg%40fsgdf.dfgom&Role=Other&ContactNo=4545454543&fakePath=C%3a%5cfakepath%5cResume-fb4ed814-a7fc-4b23-b9ab-1d93a509d8e9.docx
QueryString: 
Server Name: localhost
User Agent: Mozilla/5.0 (Windows NT 6.3; Win64; x64) AppleWebKit/537.36 (KHTML, like Gecko) Chrome/68.0.3440.84 Safari/537.36
User IP: ::1
User Host Name: ::1
Message: Failure sending mail.
Source: System
TargetSite: Void Send(System.Net.Mail.MailMessage)
StackTrace:    at System.Net.Mail.SmtpClient.Send(MailMessage message)
   at Alchemy.Models.Utility.SendEmail(String Emailbody, String[] Toemailids, String Subject, String FilePath) in D:\Arvind\Backup\Alchemy\MvcApplication1\Models\Utility.cs:line 219


Message: Unable to read data from the transport connection: net_io_connectionclosed.
Source: System
TargetSite: Int32 ProcessRead(Byte[], Int32, Int32, Boolean)
StackTrace:    at System.Net.Mail.SmtpReplyReaderFactory.ProcessRead(Byte[] buffer, Int32 offset, Int32 read, Boolean readLine)
   at System.Net.Mail.SmtpReplyReaderFactory.ReadLines(SmtpReplyReader caller, Boolean oneLine)
   at System.Net.Mail.SmtpReplyReaderFactory.ReadLine(SmtpReplyReader caller)
   at System.Net.Mail.SmtpConnection.GetConnection(ServicePoint servicePoint)
   at System.Net.Mail.SmtpTransport.GetConnection(ServicePoint servicePoint)
   at System.Net.Mail.SmtpClient.GetConnection()
   at System.Net.Mail.SmtpClient.Send(MailMessage message)




Time of Error: 08/13/18 12:38 PM
URL: http://localhost:63896/Career
Form: FullName=sfdsd&Email=sfd%40fsd.sdf&Role=Relationship+Managers&ContactNo=3434343434&fakePath=C%3a%5cfakepath%5cResume-fb4ed814-a7fc-4b23-b9ab-1d93a509d8e9.docx
QueryString: 
Server Name: localhost
User Agent: Mozilla/5.0 (Windows NT 6.3; Win64; x64) AppleWebKit/537.36 (KHTML, like Gecko) Chrome/68.0.3440.84 Safari/537.36
User IP: ::1
User Host Name: ::1
Message: Could not find file 'C:\Program Files (x86)\IIS Express\Resume-d56a60d1-a166-4edc-9a7f-cc5cb99bdcc1.docx'.
Source: mscorlib
TargetSite: Void WinIOError(Int32, System.String)
StackTrace:    at System.IO.__Error.WinIOError(Int32 errorCode, String maybeFullPath)
   at System.IO.FileStream.Init(String path, FileMode mode, FileAccess access, Int32 rights, Boolean useRights, FileShare share, Int32 bufferSize, FileOptions options, SECURITY_ATTRIBUTES secAttrs, String msgPath, Boolean bFromProxy, Boolean useLongPath, Boolean checkHost)
   at System.IO.FileStream..ctor(String path, FileMode mode, FileAccess access, FileShare share)
   at System.Net.Mail.AttachmentBase.SetContentFromFile(String fileName, String mediaType)
   at System.Net.Mail.AttachmentBase..ctor(String fileName)
   at System.Net.Mail.Attachment..ctor(String fileName)
   at Alchemy.Models.Utility.SendEmail(String Emailbody, String[] Toemailids, String Subject, String FilePath) in D:\Arvind\Backup\Alchemy\MvcApplication1\Models\Utility.cs:line 202




