Time of Error: 19/02/2019 7:25 PM
URL: http://localhost:63845/Admin/TechnologyImageVideoCaption
Form: Title=image+1&Type=Image&Video=&btnAction=Submit
QueryString: 
Server Name: localhost
User Agent: Mozilla/5.0 (Windows NT 6.1; Win64; x64) AppleWebKit/537.36 (KHTML, like Gecko) Chrome/72.0.3626.109 Safari/537.36
User IP: ::1
User Host Name: ::1
Message: Could not find a part of the path 'D:\rahul\files\Patvin\MvcApplication1\Content\uploads\Image\TechnologySolution-b35bc91f-801c-4304-9b62-03b43748058d.jpg'.
Source: mscorlib
TargetSite: Void WinIOError(Int32, System.String)
StackTrace:    at System.IO.__Error.WinIOError(Int32 errorCode, String maybeFullPath)
   at System.IO.FileStream.Init(String path, FileMode mode, FileAccess access, Int32 rights, Boolean useRights, FileShare share, Int32 bufferSize, FileOptions options, SECURITY_ATTRIBUTES secAttrs, String msgPath, Boolean bFromProxy, Boolean useLongPath, Boolean checkHost)
   at System.IO.FileStream..ctor(String path, FileMode mode, FileAccess access, FileShare share, Int32 bufferSize, FileOptions options, String msgPath, Boolean bFromProxy)
   at System.IO.FileStream..ctor(String path, FileMode mode)
   at System.Web.HttpPostedFile.SaveAs(String filename)
   at System.Web.HttpPostedFileWrapper.SaveAs(String filename)
   at Patvin.Controllers.AdminController.TechnologyImageVideoCaption(TechnologyImageVideoCaption objTechnologyImageVideoCaption, HttpPostedFileBase[] Image) in D:\rahul\files\Patvin\MvcApplication1\Controllers\AdminController.cs:line 3500




Time of Error: 19/02/2019 7:27 PM
URL: http://localhost:63845/Admin/TechnologyImageVideoCaption
Form: Title=image+1&Type=Image&Video=&btnAction=Submit
QueryString: 
Server Name: localhost
User Agent: Mozilla/5.0 (Windows NT 6.1; Win64; x64) AppleWebKit/537.36 (KHTML, like Gecko) Chrome/72.0.3626.109 Safari/537.36
User IP: ::1
User Host Name: ::1
Message: Could not find a part of the path 'D:\rahul\files\Patvin\MvcApplication1\Content\uploads\Image\TechnologySolution-9e5eed7c-0555-45ed-8d80-da1a594d81dc.jpg'.
Source: mscorlib
TargetSite: Void WinIOError(Int32, System.String)
StackTrace:    at System.IO.__Error.WinIOError(Int32 errorCode, String maybeFullPath)
   at System.IO.FileStream.Init(String path, FileMode mode, FileAccess access, Int32 rights, Boolean useRights, FileShare share, Int32 bufferSize, FileOptions options, SECURITY_ATTRIBUTES secAttrs, String msgPath, Boolean bFromProxy, Boolean useLongPath, Boolean checkHost)
   at System.IO.FileStream..ctor(String path, FileMode mode, FileAccess access, FileShare share, Int32 bufferSize, FileOptions options, String msgPath, Boolean bFromProxy)
   at System.IO.FileStream..ctor(String path, FileMode mode)
   at System.Web.HttpPostedFile.SaveAs(String filename)
   at System.Web.HttpPostedFileWrapper.SaveAs(String filename)
   at Patvin.Controllers.AdminController.TechnologyImageVideoCaption(TechnologyImageVideoCaption objTechnologyImageVideoCaption, HttpPostedFileBase[] Image) in D:\rahul\files\Patvin\MvcApplication1\Controllers\AdminController.cs:line 3500




Time of Error: 19/02/2019 7:27 PM
URL: http://localhost:63845/Admin/TechnologyImageVideoCaption
Form: Title=image+1&Type=Image&Video=&btnAction=Submit
QueryString: 
Server Name: localhost
User Agent: Mozilla/5.0 (Windows NT 6.1; Win64; x64) AppleWebKit/537.36 (KHTML, like Gecko) Chrome/72.0.3626.109 Safari/537.36
User IP: ::1
User Host Name: ::1
Message: Could not find a part of the path 'D:\rahul\files\Patvin\MvcApplication1\Content\uploads\Image\TechnologySolution-f2682b04-eb0e-403e-a6d2-7318fc885eec.jpg'.
Source: mscorlib
TargetSite: Void WinIOError(Int32, System.String)
StackTrace:    at System.IO.__Error.WinIOError(Int32 errorCode, String maybeFullPath)
   at System.IO.FileStream.Init(String path, FileMode mode, FileAccess access, Int32 rights, Boolean useRights, FileShare share, Int32 bufferSize, FileOptions options, SECURITY_ATTRIBUTES secAttrs, String msgPath, Boolean bFromProxy, Boolean useLongPath, Boolean checkHost)
   at System.IO.FileStream..ctor(String path, FileMode mode, FileAccess access, FileShare share, Int32 bufferSize, FileOptions options, String msgPath, Boolean bFromProxy)
   at System.IO.FileStream..ctor(String path, FileMode mode)
   at System.Web.HttpPostedFile.SaveAs(String filename)
   at System.Web.HttpPostedFileWrapper.SaveAs(String filename)
   at Patvin.Controllers.AdminController.TechnologyImageVideoCaption(TechnologyImageVideoCaption objTechnologyImageVideoCaption, HttpPostedFileBase[] Image)




Time of Error: 19/02/2019 7:27 PM
URL: http://localhost:63845/Admin/TechnologyImageVideoCaption
Form: Title=image+1&Type=Image&Video=&btnAction=Submit
QueryString: 
Server Name: localhost
User Agent: Mozilla/5.0 (Windows NT 6.1; Win64; x64) AppleWebKit/537.36 (KHTML, like Gecko) Chrome/72.0.3626.109 Safari/537.36
User IP: ::1
User Host Name: ::1
Message: Could not find a part of the path 'D:\rahul\files\Patvin\MvcApplication1\Content\uploads\Image\TechnologySolution-43c677b9-c6d3-4652-9eff-4c7b919960c0.jpg'.
Source: mscorlib
TargetSite: Void WinIOError(Int32, System.String)
StackTrace:    at System.IO.__Error.WinIOError(Int32 errorCode, String maybeFullPath)
   at System.IO.FileStream.Init(String path, FileMode mode, FileAccess access, Int32 rights, Boolean useRights, FileShare share, Int32 bufferSize, FileOptions options, SECURITY_ATTRIBUTES secAttrs, String msgPath, Boolean bFromProxy, Boolean useLongPath, Boolean checkHost)
   at System.IO.FileStream..ctor(String path, FileMode mode, FileAccess access, FileShare share, Int32 bufferSize, FileOptions options, String msgPath, Boolean bFromProxy)
   at System.IO.FileStream..ctor(String path, FileMode mode)
   at System.Web.HttpPostedFile.SaveAs(String filename)
   at System.Web.HttpPostedFileWrapper.SaveAs(String filename)
   at Patvin.Controllers.AdminController.TechnologyImageVideoCaption(TechnologyImageVideoCaption objTechnologyImageVideoCaption, HttpPostedFileBase[] Image)




Time of Error: 19/02/2019 7:28 PM
URL: http://localhost:63845/Admin/TechnologyImageVideoCaption
Form: Title=image+1&Type=Image&Video=&btnAction=Submit
QueryString: 
Server Name: localhost
User Agent: Mozilla/5.0 (Windows NT 6.1; Win64; x64) AppleWebKit/537.36 (KHTML, like Gecko) Chrome/72.0.3626.109 Safari/537.36
User IP: ::1
User Host Name: ::1
Message: Cannot insert explicit value for identity column in table 'TechnologyImageVideoCaption' when IDENTITY_INSERT is set to OFF.
Source: .Net SqlClient Data Provider
TargetSite: Void OnError(System.Data.SqlClient.SqlException, Boolean, System.Action`1[System.Action])
StackTrace:    at System.Data.SqlClient.SqlConnection.OnError(SqlException exception, Boolean breakConnection, Action`1 wrapCloseInAction)
   at System.Data.SqlClient.SqlInternalConnection.OnError(SqlException exception, Boolean breakConnection, Action`1 wrapCloseInAction)
   at System.Data.SqlClient.TdsParser.ThrowExceptionAndWarning(TdsParserStateObject stateObj, Boolean callerHasConnectionLock, Boolean asyncClose)
   at System.Data.SqlClient.TdsParser.TryRun(RunBehavior runBehavior, SqlCommand cmdHandler, SqlDataReader dataStream, BulkCopySimpleResultSet bulkCopyHandler, TdsParserStateObject stateObj, Boolean& dataReady)
   at System.Data.SqlClient.SqlCommand.FinishExecuteReader(SqlDataReader ds, RunBehavior runBehavior, String resetOptionsString)
   at System.Data.SqlClient.SqlCommand.RunExecuteReaderTds(CommandBehavior cmdBehavior, RunBehavior runBehavior, Boolean returnStream, Boolean async, Int32 timeout, Task& task, Boolean asyncWrite, SqlDataReader ds, Boolean describeParameterEncryptionRequest)
   at System.Data.SqlClient.SqlCommand.RunExecuteReader(CommandBehavior cmdBehavior, RunBehavior runBehavior, Boolean returnStream, String method, TaskCompletionSource`1 completion, Int32 timeout, Task& task, Boolean asyncWrite)
   at System.Data.SqlClient.SqlCommand.InternalExecuteNonQuery(TaskCompletionSource`1 completion, String methodName, Boolean sendToPipe, Int32 timeout, Boolean asyncWrite)
   at System.Data.SqlClient.SqlCommand.ExecuteNonQuery()
   at Patvin.Models.Utility.Execute(SqlCommand cmd)




Time of Error: 19/02/2019 7:30 PM
URL: http://localhost:63845/Admin/TechnologyImageVideoCaption
Form: Title=image+1&Type=Image&Video=&btnAction=Submit
QueryString: 
Server Name: localhost
User Agent: Mozilla/5.0 (Windows NT 6.1; Win64; x64) AppleWebKit/537.36 (KHTML, like Gecko) Chrome/72.0.3626.109 Safari/537.36
User IP: ::1
User Host Name: ::1
Message: Cannot insert explicit value for identity column in table 'TechnologyImageVideoCaption' when IDENTITY_INSERT is set to OFF.
Source: .Net SqlClient Data Provider
TargetSite: Void OnError(System.Data.SqlClient.SqlException, Boolean, System.Action`1[System.Action])
StackTrace:    at System.Data.SqlClient.SqlConnection.OnError(SqlException exception, Boolean breakConnection, Action`1 wrapCloseInAction)
   at System.Data.SqlClient.SqlInternalConnection.OnError(SqlException exception, Boolean breakConnection, Action`1 wrapCloseInAction)
   at System.Data.SqlClient.TdsParser.ThrowExceptionAndWarning(TdsParserStateObject stateObj, Boolean callerHasConnectionLock, Boolean asyncClose)
   at System.Data.SqlClient.TdsParser.TryRun(RunBehavior runBehavior, SqlCommand cmdHandler, SqlDataReader dataStream, BulkCopySimpleResultSet bulkCopyHandler, TdsParserStateObject stateObj, Boolean& dataReady)
   at System.Data.SqlClient.SqlCommand.FinishExecuteReader(SqlDataReader ds, RunBehavior runBehavior, String resetOptionsString)
   at System.Data.SqlClient.SqlCommand.RunExecuteReaderTds(CommandBehavior cmdBehavior, RunBehavior runBehavior, Boolean returnStream, Boolean async, Int32 timeout, Task& task, Boolean asyncWrite, SqlDataReader ds, Boolean describeParameterEncryptionRequest)
   at System.Data.SqlClient.SqlCommand.RunExecuteReader(CommandBehavior cmdBehavior, RunBehavior runBehavior, Boolean returnStream, String method, TaskCompletionSource`1 completion, Int32 timeout, Task& task, Boolean asyncWrite)
   at System.Data.SqlClient.SqlCommand.InternalExecuteNonQuery(TaskCompletionSource`1 completion, String methodName, Boolean sendToPipe, Int32 timeout, Boolean asyncWrite)
   at System.Data.SqlClient.SqlCommand.ExecuteNonQuery()
   at Patvin.Models.Utility.Execute(SqlCommand cmd)




Time of Error: 19/02/2019 7:30 PM
URL: http://localhost:63845/Admin/TechnologyImageVideoCaption
Form: 
QueryString: 
Server Name: localhost
User Agent: Mozilla/5.0 (Windows NT 6.1; Win64; x64) AppleWebKit/537.36 (KHTML, like Gecko) Chrome/72.0.3626.109 Safari/537.36
User IP: ::1
User Host Name: ::1
Message: Column 'Heading' does not belong to table .
Source: System.Data
TargetSite: System.Data.DataColumn GetDataColumn(System.String)
StackTrace:    at System.Data.DataRow.GetDataColumn(String columnName)
   at System.Data.DataRow.get_Item(String columnName)
   at Patvin.Controllers.AdminController.GetTechnologyImageVideoCaptionList()




Time of Error: 19/02/2019 7:31 PM
URL: http://localhost:63845/Admin/TechnologyImageVideoCaption
Form: 
QueryString: 
Server Name: localhost
User Agent: Mozilla/5.0 (Windows NT 6.1; Win64; x64) AppleWebKit/537.36 (KHTML, like Gecko) Chrome/72.0.3626.109 Safari/537.36
User IP: ::1
User Host Name: ::1
Message: Column 'Heading' does not belong to table .
Source: System.Data
TargetSite: System.Data.DataColumn GetDataColumn(System.String)
StackTrace:    at System.Data.DataRow.GetDataColumn(String columnName)
   at System.Data.DataRow.get_Item(String columnName)
   at Patvin.Controllers.AdminController.GetTechnologyImageVideoCaptionList()




Time of Error: 19/02/2019 7:33 PM
URL: http://localhost:63845/Admin/TechnologyImageVideoCaption
Form: 
QueryString: 
Server Name: localhost
User Agent: Mozilla/5.0 (Windows NT 6.1; Win64; x64) AppleWebKit/537.36 (KHTML, like Gecko) Chrome/72.0.3626.109 Safari/537.36
User IP: ::1
User Host Name: ::1
Message: Column 'Heading' does not belong to table .
Source: System.Data
TargetSite: System.Data.DataColumn GetDataColumn(System.String)
StackTrace:    at System.Data.DataRow.GetDataColumn(String columnName)
   at System.Data.DataRow.get_Item(String columnName)
   at Patvin.Controllers.AdminController.GetTechnologyImageVideoCaptionList() in D:\rahul\files\Patvin\MvcApplication1\Controllers\AdminController.cs:line 3427




Time of Error: 19/02/2019 7:33 PM
URL: http://localhost:63845/Admin/TechnologyImageVideoCaption
Form: 
QueryString: 
Server Name: localhost
User Agent: Mozilla/5.0 (Windows NT 6.1; Win64; x64) AppleWebKit/537.36 (KHTML, like Gecko) Chrome/72.0.3626.109 Safari/537.36
User IP: ::1
User Host Name: ::1
Message: Column 'Heading' does not belong to table .
Source: System.Data
TargetSite: System.Data.DataColumn GetDataColumn(System.String)
StackTrace:    at System.Data.DataRow.GetDataColumn(String columnName)
   at System.Data.DataRow.get_Item(String columnName)
   at Patvin.Controllers.AdminController.GetTechnologyImageVideoCaptionList() in D:\rahul\files\Patvin\MvcApplication1\Controllers\AdminController.cs:line 3427




Time of Error: 19/02/2019 7:33 PM
URL: http://localhost:63845/Admin/TechnologyImageVideoCaption
Form: 
QueryString: 
Server Name: localhost
User Agent: Mozilla/5.0 (Windows NT 6.1; Win64; x64) AppleWebKit/537.36 (KHTML, like Gecko) Chrome/72.0.3626.109 Safari/537.36
User IP: ::1
User Host Name: ::1
Message: Column 'Heading' does not belong to table .
Source: System.Data
TargetSite: System.Data.DataColumn GetDataColumn(System.String)
StackTrace:    at System.Data.DataRow.GetDataColumn(String columnName)
   at System.Data.DataRow.get_Item(String columnName)
   at Patvin.Controllers.AdminController.GetTechnologyImageVideoCaptionList() in D:\rahul\files\Patvin\MvcApplication1\Controllers\AdminController.cs:line 3427




Time of Error: 19/02/2019 7:33 PM
URL: http://localhost:63845/Admin/TechnologyImageVideoCaption
Form: 
QueryString: 
Server Name: localhost
User Agent: Mozilla/5.0 (Windows NT 6.1; Win64; x64) AppleWebKit/537.36 (KHTML, like Gecko) Chrome/72.0.3626.109 Safari/537.36
User IP: ::1
User Host Name: ::1
Message: Column 'Heading' does not belong to table .
Source: System.Data
TargetSite: System.Data.DataColumn GetDataColumn(System.String)
StackTrace:    at System.Data.DataRow.GetDataColumn(String columnName)
   at System.Data.DataRow.get_Item(String columnName)
   at Patvin.Controllers.AdminController.GetTechnologyImageVideoCaptionList() in D:\rahul\files\Patvin\MvcApplication1\Controllers\AdminController.cs:line 3427




Time of Error: 19/02/2019 7:34 PM
URL: http://localhost:63845/Admin/TechnologyImageVideoCaption
Form: 
QueryString: 
Server Name: localhost
User Agent: Mozilla/5.0 (Windows NT 6.1; Win64; x64) AppleWebKit/537.36 (KHTML, like Gecko) Chrome/72.0.3626.109 Safari/537.36
User IP: ::1
User Host Name: ::1
Message: Column 'Heading' does not belong to table .
Source: System.Data
TargetSite: System.Data.DataColumn GetDataColumn(System.String)
StackTrace:    at System.Data.DataRow.GetDataColumn(String columnName)
   at System.Data.DataRow.get_Item(String columnName)
   at Patvin.Controllers.AdminController.GetTechnologyImageVideoCaptionList() in D:\rahul\files\Patvin\MvcApplication1\Controllers\AdminController.cs:line 3427




Time of Error: 19/02/2019 7:34 PM
URL: http://localhost:63845/Admin/TechnologyImageVideoCaption
Form: 
QueryString: 
Server Name: localhost
User Agent: Mozilla/5.0 (Windows NT 6.1; Win64; x64) AppleWebKit/537.36 (KHTML, like Gecko) Chrome/72.0.3626.109 Safari/537.36
User IP: ::1
User Host Name: ::1
Message: Column 'Heading' does not belong to table .
Source: System.Data
TargetSite: System.Data.DataColumn GetDataColumn(System.String)
StackTrace:    at System.Data.DataRow.GetDataColumn(String columnName)
   at System.Data.DataRow.get_Item(String columnName)
   at Patvin.Controllers.AdminController.GetTechnologyImageVideoCaptionList() in D:\rahul\files\Patvin\MvcApplication1\Controllers\AdminController.cs:line 3427




Time of Error: 19/02/2019 7:36 PM
URL: http://localhost:63845/Admin/EditTechnologyImageVideoCaption/2
Form: 
QueryString: 
Server Name: localhost
User Agent: Mozilla/5.0 (Windows NT 6.1; Win64; x64) AppleWebKit/537.36 (KHTML, like Gecko) Chrome/72.0.3626.109 Safari/537.36
User IP: ::1
User Host Name: ::1
Message: Could not find stored procedure 'Proc_Insights'.
Source: .Net SqlClient Data Provider
TargetSite: Void OnError(System.Data.SqlClient.SqlException, Boolean, System.Action`1[System.Action])
StackTrace:    at System.Data.SqlClient.SqlConnection.OnError(SqlException exception, Boolean breakConnection, Action`1 wrapCloseInAction)
   at System.Data.SqlClient.SqlInternalConnection.OnError(SqlException exception, Boolean breakConnection, Action`1 wrapCloseInAction)
   at System.Data.SqlClient.TdsParser.ThrowExceptionAndWarning(TdsParserStateObject stateObj, Boolean callerHasConnectionLock, Boolean asyncClose)
   at System.Data.SqlClient.TdsParser.TryRun(RunBehavior runBehavior, SqlCommand cmdHandler, SqlDataReader dataStream, BulkCopySimpleResultSet bulkCopyHandler, TdsParserStateObject stateObj, Boolean& dataReady)
   at System.Data.SqlClient.SqlDataReader.TryConsumeMetaData()
   at System.Data.SqlClient.SqlDataReader.get_MetaData()
   at System.Data.SqlClient.SqlCommand.FinishExecuteReader(SqlDataReader ds, RunBehavior runBehavior, String resetOptionsString)
   at System.Data.SqlClient.SqlCommand.RunExecuteReaderTds(CommandBehavior cmdBehavior, RunBehavior runBehavior, Boolean returnStream, Boolean async, Int32 timeout, Task& task, Boolean asyncWrite, SqlDataReader ds, Boolean describeParameterEncryptionRequest)
   at System.Data.SqlClient.SqlCommand.RunExecuteReader(CommandBehavior cmdBehavior, RunBehavior runBehavior, Boolean returnStream, String method, TaskCompletionSource`1 completion, Int32 timeout, Task& task, Boolean asyncWrite)
   at System.Data.SqlClient.SqlCommand.RunExecuteReader(CommandBehavior cmdBehavior, RunBehavior runBehavior, Boolean returnStream, String method)
   at System.Data.SqlClient.SqlCommand.ExecuteReader(CommandBehavior behavior, String method)
   at System.Data.SqlClient.SqlCommand.ExecuteDbDataReader(CommandBehavior behavior)
   at System.Data.Common.DbCommand.System.Data.IDbCommand.ExecuteReader(CommandBehavior behavior)
   at System.Data.Common.DbDataAdapter.FillInternal(DataSet dataset, DataTable[] datatables, Int32 startRecord, Int32 maxRecords, String srcTable, IDbCommand command, CommandBehavior behavior)
   at System.Data.Common.DbDataAdapter.Fill(DataTable[] dataTables, Int32 startRecord, Int32 maxRecords, IDbCommand command, CommandBehavior behavior)
   at System.Data.Common.DbDataAdapter.Fill(DataTable dataTable)
   at Patvin.Models.Utility.Display(String query) in D:\rahul\files\Patvin\MvcApplication1\Models\Utility.cs:line 85




